{
  "project_info": {
    "project_number": "811516267291",
    "project_id": "oneqlik-project",
    "storage_bucket": "oneqlik-project.appspot.com"
  },
  "client": [
    {
      "client_info": {
        "mobilesdk_app_id": "1:811516267291:android:3017d14ed1de9796d5a1be",
        "android_client_info": {
          "package_name": "com.OneQlikVTSNew.ionic"
        }
      },
      "oauth_client": [
        {
          "client_id": "811516267291-5ahf955a9iui0a8tudbf4fugnrlcjiqr.apps.googleusercontent.com",
          "client_type": 3
        }
      ],
      "api_key": [
        {
          "current_key": "AIzaSyDQvycdfN3hCZHLXtecHEkXYaE33uX63u4"
        }
      ],
      "services": {
        "appinvite_service": {
          "other_platform_oauth_client": [
            {
              "client_id": "811516267291-5ahf955a9iui0a8tudbf4fugnrlcjiqr.apps.googleusercontent.com",
              "client_type": 3
            },
            {
              "client_id": "811516267291-2o9kue9aune1ur1mod788p6sgl2cqu7t.apps.googleusercontent.com",
              "client_type": 2,
              "ios_info": {
                "bundle_id": "com.innovativetrack.ionic"
              }
            }
          ]
        }
      }
    },
    {
      "client_info": {
        "mobilesdk_app_id": "1:811516267291:android:a18272ffbdac4253d5a1be",
        "android_client_info": {
          "package_name": "io.autotelelite.app"
        }
      },
      "oauth_client": [
        {
          "client_id": "811516267291-5ahf955a9iui0a8tudbf4fugnrlcjiqr.apps.googleusercontent.com",
          "client_type": 3
        }
      ],
      "api_key": [
        {
          "current_key": "AIzaSyDQvycdfN3hCZHLXtecHEkXYaE33uX63u4"
        }
      ],
      "services": {
        "appinvite_service": {
          "other_platform_oauth_client": [
            {
              "client_id": "811516267291-5ahf955a9iui0a8tudbf4fugnrlcjiqr.apps.googleusercontent.com",
              "client_type": 3
            },
            {
              "client_id": "811516267291-2o9kue9aune1ur1mod788p6sgl2cqu7t.apps.googleusercontent.com",
              "client_type": 2,
              "ios_info": {
                "bundle_id": "com.innovativetrack.ionic"
              }
            }
          ]
        }
      }
    }
  ],
  "configuration_version": "1"
}